<svg width="137" height="137" viewBox="0 0 137 137" version="2.0" xmlns="http://www.w3.org/2000/svg" xmlns:xlink="http://www.w3.org/1999/xlink" xmlns:figma="http://www.figma.com/figma/ns">
<title>Icon</title>
<desc>Created using Figma (9000)</desc>
<g id="Canvas" transform="translate(64 130)" figma:type="canvas">
<g id="Icon" style="mix-blend-mode:normal;" figma:type="group">
<g id="Square" style="mix-blend-mode:normal;" figma:type="group">
<mask id="mask0_alpha" mask-type="alpha">
<g id="Subtract" style="mix-blend-mode:normal;" figma:type="vector-operation">
<use xlink:href="#path0_fill" transform="translate(-64 -103)" style="mix-blend-mode:normal;"/>
</g>
</mask>
<g id="Rectangle" style="mix-blend-mode:normal;" mask="url(#mask0_alpha)" figma:type="rounded-rectangle">
<use xlink:href="#path1_stroke" transform="translate(-59 -98)" fill="#FFFFFF" style="mix-blend-mode:normal;"/>
</g>
</g>
<g id="Arrow" style="mix-blend-mode:normal;" figma:type="group">
<g id="Head" style="mix-blend-mode:normal;" figma:type="vector">
<use xlink:href="#path2_stroke" transform="translate(28 -125)" fill="#FFFFFF" style="mix-blend-mode:normal;"/>
</g>
<g id="Base" style="mix-blend-mode:normal;" figma:type="vector-operation">
<use xlink:href="#path3_fill" transform="translate(-17 -129.071)" fill="#FFFFFF" style="mix-blend-mode:normal;"/>
</g>
</g>
</g>
</g>
<defs>
<path id="path0_fill" d="
M 0 110
L 110 110
L 110 21.6969
L 55 76.6969
L 33.3031 55
L 88.3031 0
L 0 0
L 0 110
Z"/>
<path id="path1_stroke" d="
M 0 0
L 0 -5
C -2.76142 -5 -5 -2.76142 -5 1.11022e-15
L 0 0
Z
M 100 0
L 105 0
C 105 -2.76142 102.761 -5 100 -5
L 100 0
Z
M 100 100
L 100 105
C 102.761 105 105 102.761 105 100
L 100 100
Z
M 0 100
L -5 100
C -5 102.761 -2.76142 105 1.11022e-15 105
L 0 100
Z
M 0 5
L 100 5
L 100 -5
L 0 -5
L 0 5
Z
M 95 0
L 95 100
L 105 100
L 105 0
L 95 0
Z
M 100 95
L 0 95
L 0 105
L 100 105
L 100 95
Z
M 5 100
L 5 0
L -5 0
L -5 100
L 5 100
Z"/>
<path id="path2_stroke" d="
M 0 -5
L -5 -5
L -5 5
L 0 5
L 0 -5
Z
M 40 0
L 45 0
C 45 -2.76142 42.7614 -5 40 -5
L 40 0
Z
M 35 40
L 35 45
L 45 45
L 45 40
L 35 40
Z
M 0 5
L 40 5
L 40 -5
L 0 -5
L 0 5
Z
M 35 0
L 35 40
L 45 40
L 45 0
L 35 0
Z"/>
<path id="path3_fill" d="
M 0 84.0711
C 0 86.8325 2.23858 89.0711 5 89.0711
C 6.10747 89.0711 7.13084 88.711 7.95944 88.1016
L 8 88.1421
L 11.5355 84.6066
L 85.5355 10.6066
L 89.0711 7.07107
L 82 0
L 78.4645 3.53553
L 4.46447 77.5355
L 0.928932 81.0711
L 0.969489 81.1116
C 0.360054 81.9402 0 82.9636 0 84.0711
Z"/>
</defs>
</svg>
